{
	"version": 1,
	"changelists": [
		{
			"guid": "00000000000000000000000000000000",
			"description": "Default Uncontrolled Changelist",
			"files": [
				"C:/Users/shken/Documents/Unreal Projects/MyProjectUE5/Content/StarterContent/Blueprints/Blueprint_CeilingLight.uasset",
				"C:/Users/shken/Documents/Unreal Projects/MyProjectUE5/Content/TopDown/FXS_FireProps.uasset",
				"C:/Users/shken/Documents/Unreal Projects/MyProjectUE5/Content/__ExternalActors__/TopDown/Maps/TopDownMap/2/96/CVOTUKL0VK5R11ZR8S852R.uasset",
				"C:/Users/shken/Documents/Unreal Projects/MyProjectUE5/Content/StarterContent/Particles/Materials/M_Fire_SubUV.uasset",
				"C:/Users/shken/Documents/Unreal Projects/MyProjectUE5/Content/StarterContent/Particles/Materials/M_Heat_Distortion.uasset",
				"C:/Users/shken/Documents/Unreal Projects/MyProjectUE5/Content/StarterContent/Particles/Materials/M_smoke_subUV.uasset",
				"C:/Users/shken/Documents/Unreal Projects/MyProjectUE5/Content/sA_Megapack_v1/sA_Projectilevfx/Vfx/Materials/Textures/Noise00.uasset",
				"C:/Users/shken/Documents/Unreal Projects/MyProjectUE5/Content/sA_Megapack_v1/sA_Projectilevfx/Vfx/Materials/Textures/Noise000.uasset",
				"C:/Users/shken/Documents/Unreal Projects/MyProjectUE5/Content/sA_Megapack_v1/sA_Projectilevfx/Vfx/Materials/Textures/Noise01.uasset",
				"C:/Users/shken/Documents/Unreal Projects/MyProjectUE5/Content/sA_Megapack_v1/sA_Projectilevfx/Vfx/Materials/Textures/Noise02.uasset",
				"C:/Users/shken/Documents/Unreal Projects/MyProjectUE5/Content/sA_Megapack_v1/sA_Projectilevfx/Vfx/Materials/Textures/Noise03.uasset",
				"C:/Users/shken/Documents/Unreal Projects/MyProjectUE5/Content/sA_Megapack_v1/sA_Projectilevfx/Vfx/Materials/Textures/Noise04.uasset",
				"C:/Users/shken/Documents/Unreal Projects/MyProjectUE5/Content/sA_Megapack_v1/sA_Projectilevfx/Vfx/Materials/Textures/Noise06.uasset",
				"C:/Users/shken/Documents/Unreal Projects/MyProjectUE5/Content/sA_Megapack_v1/sA_Projectilevfx/Vfx/Materials/Textures/Noise07.uasset",
				"C:/Users/shken/Documents/Unreal Projects/MyProjectUE5/Content/sA_Megapack_v1/sA_Projectilevfx/Vfx/Materials/Textures/Noise08.uasset",
				"C:/Users/shken/Documents/Unreal Projects/MyProjectUE5/Content/sA_Megapack_v1/sA_Projectilevfx/Vfx/Materials/Textures/Noise09.uasset",
				"C:/Users/shken/Documents/Unreal Projects/MyProjectUE5/Content/sA_Megapack_v1/sA_Projectilevfx/Vfx/Materials/Textures/Noise10.uasset",
				"C:/Users/shken/Documents/Unreal Projects/MyProjectUE5/Content/sA_Megapack_v1/sA_Projectilevfx/Vfx/Materials/Textures/Noise11.uasset",
				"C:/Users/shken/Documents/Unreal Projects/MyProjectUE5/Content/sA_Megapack_v1/sA_Projectilevfx/Vfx/Materials/Textures/Noise12.uasset",
				"C:/Users/shken/Documents/Unreal Projects/MyProjectUE5/Content/sA_Megapack_v1/sA_Rayvfx/Materials/Textures/Noise00.uasset",
				"C:/Users/shken/Documents/Unreal Projects/MyProjectUE5/Content/sA_Megapack_v1/sA_Rayvfx/Materials/Textures/Noise000.uasset",
				"C:/Users/shken/Documents/Unreal Projects/MyProjectUE5/Content/sA_Megapack_v1/sA_Rayvfx/Materials/Textures/Noise01.uasset",
				"C:/Users/shken/Documents/Unreal Projects/MyProjectUE5/Content/sA_Megapack_v1/sA_Rayvfx/Materials/Textures/Noise02.uasset",
				"C:/Users/shken/Documents/Unreal Projects/MyProjectUE5/Content/sA_Megapack_v1/sA_Rayvfx/Materials/Textures/Noise04.uasset",
				"C:/Users/shken/Documents/Unreal Projects/MyProjectUE5/Content/sA_Megapack_v1/sA_Rayvfx/Materials/Textures/Noise06.uasset",
				"C:/Users/shken/Documents/Unreal Projects/MyProjectUE5/Content/sA_Megapack_v1/sA_Rayvfx/Materials/Textures/Noise07.uasset",
				"C:/Users/shken/Documents/Unreal Projects/MyProjectUE5/Content/sA_Megapack_v1/sA_Rayvfx/Materials/Textures/Noise08.uasset",
				"C:/Users/shken/Documents/Unreal Projects/MyProjectUE5/Content/sA_Megapack_v1/sA_Rayvfx/Materials/Textures/Noise09.uasset",
				"C:/Users/shken/Documents/Unreal Projects/MyProjectUE5/Content/sA_Megapack_v1/sA_Rayvfx/Materials/Textures/Noise10.uasset",
				"C:/Users/shken/Documents/Unreal Projects/MyProjectUE5/Content/sA_Megapack_v1/sA_Rayvfx/Materials/Textures/Noise11.uasset",
				"C:/Users/shken/Documents/Unreal Projects/MyProjectUE5/Content/sA_Megapack_v1/sA_Rayvfx/Materials/Textures/Noise12.uasset",
				"C:/Users/shken/Documents/Unreal Projects/MyProjectUE5/Content/sA_Megapack_v1/sA_SkillSet_1/Materials/Textures/Noise00.uasset",
				"C:/Users/shken/Documents/Unreal Projects/MyProjectUE5/Content/sA_Megapack_v1/sA_SkillSet_1/Materials/Textures/Noise000.uasset",
				"C:/Users/shken/Documents/Unreal Projects/MyProjectUE5/Content/sA_Megapack_v1/sA_SkillSet_1/Materials/Textures/Noise01.uasset",
				"C:/Users/shken/Documents/Unreal Projects/MyProjectUE5/Content/sA_Megapack_v1/sA_SkillSet_1/Materials/Textures/Noise02.uasset",
				"C:/Users/shken/Documents/Unreal Projects/MyProjectUE5/Content/sA_Megapack_v1/sA_SkillSet_1/Materials/Textures/Noise04.uasset",
				"C:/Users/shken/Documents/Unreal Projects/MyProjectUE5/Content/sA_Megapack_v1/sA_SkillSet_1/Materials/Textures/Noise06.uasset",
				"C:/Users/shken/Documents/Unreal Projects/MyProjectUE5/Content/sA_Megapack_v1/sA_SkillSet_1/Materials/Textures/Noise07.uasset",
				"C:/Users/shken/Documents/Unreal Projects/MyProjectUE5/Content/sA_Megapack_v1/sA_SkillSet_1/Materials/Textures/Noise08.uasset",
				"C:/Users/shken/Documents/Unreal Projects/MyProjectUE5/Content/sA_Megapack_v1/sA_SkillSet_1/Materials/Textures/Noise09.uasset",
				"C:/Users/shken/Documents/Unreal Projects/MyProjectUE5/Content/sA_Megapack_v1/sA_SkillSet_1/Materials/Textures/Noise10.uasset",
				"C:/Users/shken/Documents/Unreal Projects/MyProjectUE5/Content/sA_Megapack_v1/sA_SkillSet_1/Materials/Textures/Noise11.uasset",
				"C:/Users/shken/Documents/Unreal Projects/MyProjectUE5/Content/sA_Megapack_v1/sA_SkillSet_1/Materials/Textures/Noise12.uasset",
				"C:/Users/shken/Documents/Unreal Projects/MyProjectUE5/Content/sA_Megapack_v1/sA_PickupSet_1/Materials/Textures/T_Beam_01.uasset",
				"C:/Users/shken/Documents/Unreal Projects/MyProjectUE5/Content/sA_Megapack_v1/sA_PickupSet_1/Materials/Textures/T_NoiseCloud_1.uasset",
				"C:/Users/shken/Documents/Unreal Projects/MyProjectUE5/Content/sA_Megapack_v1/sA_PickupSet_1/Materials/Textures/T_NoiseCloud_2.uasset",
				"C:/Users/shken/Documents/Unreal Projects/MyProjectUE5/Content/sA_Megapack_v1/sA_PickupSet_1/Materials/Textures/T_NoiseFurry.uasset",
				"C:/Users/shken/Documents/Unreal Projects/MyProjectUE5/Content/sA_Megapack_v1/sA_Projectilevfx/Vfx/Materials/Textures/T_Beam_01.uasset",
				"C:/Users/shken/Documents/Unreal Projects/MyProjectUE5/Content/sA_Megapack_v1/sA_Rayvfx/Materials/Textures/T_Beam_01.uasset",
				"C:/Users/shken/Documents/Unreal Projects/MyProjectUE5/Content/sA_Megapack_v1/sA_SkillSet_1/Materials/Textures/T_Beam_01.uasset",
				"C:/Users/shken/Documents/Unreal Projects/MyProjectUE5/Content/sA_Megapack_v1/sA_StylizedAttacksPack/Materials/Textures/T_Noise10.uasset"
			]
		}
	]
}